…
Be sure to explain your reasoning for this task. Show us the “before”
and “after”.

<!--------------------------- Start your work below --------------------------->

**The following code block shows how the dataset appears before it is
untidy-ed:**

``` r
vancouver_trees
```

    ## # A tibble: 146,611 × 20
    ##    tree_id civic_number std_st…¹ genus…² speci…³ culti…⁴ commo…⁵ assig…⁶ root_…⁷
    ##      <dbl>        <dbl> <chr>    <chr>   <chr>   <chr>   <chr>   <chr>   <chr>  
    ##  1  149556          494 W 58TH … ULMUS   AMERIC… BRANDON BRANDO… N       N      
    ##  2  149563          450 W 58TH … ZELKOVA SERRATA <NA>    JAPANE… N       N      
    ##  3  149579         4994 WINDSOR… STYRAX  JAPONI… <NA>    JAPANE… N       N      
    ##  4  149590          858 E 39TH … FRAXIN… AMERIC… AUTUMN… AUTUMN… Y       N      
    ##  5  149604         5032 WINDSOR… ACER    CAMPES… <NA>    HEDGE … N       N      
    ##  6  149616          585 W 61ST … PYRUS   CALLER… CHANTI… CHANTI… N       N      
    ##  7  149617         4909 SHERBRO… ACER    PLATAN… COLUMN… COLUMN… N       N      
    ##  8  149618         4925 SHERBRO… ACER    PLATAN… COLUMN… COLUMN… N       N      
    ##  9  149619         4969 SHERBRO… ACER    PLATAN… COLUMN… COLUMN… N       N      
    ## 10  149625          720 E 39TH … FRAXIN… AMERIC… AUTUMN… AUTUMN… N       N      
    ## # … with 146,601 more rows, 11 more variables: plant_area <chr>,
    ## #   on_street_block <dbl>, on_street <chr>, neighbourhood_name <chr>,
    ## #   street_side_name <chr>, height_range_id <dbl>, diameter <dbl>, curb <chr>,
    ## #   date_planted <date>, longitude <dbl>, latitude <dbl>, and abbreviated
    ## #   variable names ¹​std_street, ²​genus_name, ³​species_name, ⁴​cultivar_name,
    ## #   ⁵​common_name, ⁶​assigned, ⁷​root_barrier
…
``` r
tidy_trees <- tidy_trees %>%
  mutate(tidy_trees, tree_size = ((2 * 3.14 *(diameter/2)*height_range_id) + (2*3.14)*((diameter/2)**2))) %>% 
  group_by(neighbourhood_name) %>%
  arrange(tree_size) %>%
  filter(tree_size > 0)
  
tidy_trees  
```

    ## # A tibble: 146,519 × 17
    ## # Groups:   neighbourhood_name [22]
    ##    tree_id genus_name species_…¹ culti…² root_…³ plant…⁴ on_st…⁵ on_st…⁶ neigh…⁷
    ##      <dbl> <chr>      <chr>      <chr>   <chr>   <chr>     <dbl> <chr>   <chr>  
    ##  1   92220 MALUS      FLORIBUNDA <NA>    N       10         5900 MACDON… KERRIS…
    ##  2  257371 STYRAX     JAPONICA   <NA>    N       7          4000 ASH ST  SOUTH …
    ##  3  198177 PYRUS      CALLERYANA CHANTI… N       N          2400 E 48TH… VICTOR…
    ##  4   50713 PRUNUS     CERASIFERA ATROPU… N       12          100 E 60TH… SUNSET 
    ##  5  189630 ACER       CAMPESTRE  QUEEN … N       10         2200 E 51ST… VICTOR…
    ##  6   49630 PRUNUS     CERASIFERA ATROPU… N       9           200 E 58TH… SUNSET 
    ##  7   31025 LABURNUM   WATERERI … <NA>    N       N          4600 CROWN … DUNBAR…
    ##  8  136795 PRUNUS     X YEDOENS… AKEBONO N       8          1400 E 20TH… KENSIN…
    ##  9  107016 MALUS      FLORIBUNDA <NA>    N       10         4800 QUEBEC… RILEY …
    ## 10  212285 ZELKOVA    SERRATA    VILLAG… Y       8          2900 E 27TH… RENFRE…
    ## # … with 146,509 more rows, 8 more variables: street_side_name <chr>,
    ## #   height_range_id <dbl>, diameter <dbl>, curb <chr>, date_planted <date>,
    ## #   longitude <dbl>, latitude <dbl>, tree_size <dbl>, and abbreviated variable
    ## #   names ¹​species_name, ²​cultivar_name, ³​root_barrier, ⁴​plant_area,
    ## #   ⁵​on_street_block, ⁶​on_street, ⁷​neighbourhood_name
…
