…
# View new tibble class to verify tibble creation, and then view tibble itself:
class(vancouver_trees_column_NA_numbers)
```

    ## [1] "tbl_df"     "tbl"        "data.frame"

``` r
vancouver_trees_column_NA_numbers
```

    ## # A tibble: 21 × 2
    ##    vancouver_trees_column_names vancouver_trees_null_values
    ##    <chr>                                              <dbl>
    ##  1 tree_id                                                0
    ##  2 civic_number                                           0
    ##  3 std_street                                             0
    ##  4 genus_name                                             0
    ##  5 species_name                                           0
    ##  6 cultivar_name                                      67559
    ##  7 common_name                                            0
    ##  8 assigned                                               0
    ##  9 root_barrier                                           0
    ## 10 plant_area                                          1486
    ## # … with 11 more rows
…
### Question 1: Which tree genuses are planted the most in Vancouver?

**Task: Compute the number of observations for at least one of your
categorical variables, and Create a graph of your choosing, make one of
the axes logarithmic, and format the axes labels so that they are
“pretty” or easier to read**

    In the following code block I compute the number of observations for the categorical variable 'genus_name'. I then create a bar chart to represent this data, with the count axis (y) being logarithmic and the genus name labels on the x axis being adjusted for better readability. These tasks have helped to illustrate how many trees of each genus have been planted, and the bar chart displays visually which genuses have been planted the most. 

``` r
genus_count = count(vancouver_trees, genus_name)
genus_count
```

    ## # A tibble: 97 × 2
    ##    genus_name      n
    ##    <chr>       <int>
    ##  1 ABIES         190
    ##  2 ACER        36062
    ##  3 AESCULUS     2570
    ##  4 AILANTHUS       4
    ##  5 ALBIZIA         1
    ##  6 ALNUS          74
    ##  7 AMELANCHIER   226
    ##  8 ARALIA          4
    ##  9 ARAUCARIA      10
    ## 10 ARBUTUS        10
    ## # … with 87 more rows
…
``` r
tree_size_by_neighbourhood<- vancouver_trees %>%
  group_by(neighbourhood_name, diameter, height_range_id) %>%
  summarise(tree_size = ((2 * 3.14 *(diameter/2)*height_range_id) + (2*3.14)*((diameter/2)**2)))
```

    ## `summarise()` has grouped output by 'neighbourhood_name', 'diameter',
    ## 'height_range_id'. You can override using the `.groups` argument.

``` r
tree_size_by_neighbourhood %>%
  mutate(tree_size_categories = cut(tree_size, breaks = c(-Inf,60000,120000,180000,240000, Inf), labels = c("X-Small", "Small", "Medium", "Large", "X-Large")))
```

    ## # A tibble: 146,611 × 5
    ## # Groups:   neighbourhood_name, diameter, height_range_id [12,152]
    ##    neighbourhood_name diameter height_range_id tree_size tree_size_categories
    ##    <chr>                 <dbl>           <dbl>     <dbl> <fct>               
    ##  1 ARBUTUS-RIDGE          0                  0      0    X-Small             
    ##  2 ARBUTUS-RIDGE          0                  0      0    X-Small             
    ##  3 ARBUTUS-RIDGE          0                  1      0    X-Small             
    ##  4 ARBUTUS-RIDGE          1                  1      4.71 X-Small             
    ##  5 ARBUTUS-RIDGE          1                  2      7.85 X-Small             
    ##  6 ARBUTUS-RIDGE          1.25               3     14.2  X-Small             
    ##  7 ARBUTUS-RIDGE          2                  1     12.6  X-Small             
    ##  8 ARBUTUS-RIDGE          2                  1     12.6  X-Small             
    ##  9 ARBUTUS-RIDGE          2                  1     12.6  X-Small             
    ## 10 ARBUTUS-RIDGE          2                  1     12.6  X-Small             
    ## # … with 146,601 more rows
…
**Task: Based on two categorical variables, calculate two summary
statistics of your choosing.**

    In the following code block I have calculated the summary statistics of frequency count and proportion for the two categorical variables neighbourhood_name and street_side_name. These statistics help to identify if certain neighbourhoods or different types of street sides have had more trees planted than others within their categories.

``` r
neighbourhood_name_summary_statistics <- vancouver_trees %>%
  count(neighbourhood_name) %>%
  mutate(neighbourhood_proportion = n / sum(n))

neighbourhood_name_summary_statistics
```

    ## # A tibble: 22 × 3
    ##    neighbourhood_name           n neighbourhood_proportion
    ##    <chr>                    <int>                    <dbl>
    ##  1 ARBUTUS-RIDGE             5169                   0.0353
    ##  2 DOWNTOWN                  5159                   0.0352
    ##  3 DUNBAR-SOUTHLANDS         9415                   0.0642
    ##  4 FAIRVIEW                  4002                   0.0273
    ##  5 GRANDVIEW-WOODLAND        6703                   0.0457
    ##  6 HASTINGS-SUNRISE         10547                   0.0719
    ##  7 KENSINGTON-CEDAR COTTAGE 11042                   0.0753
    ##  8 KERRISDALE                6936                   0.0473
    ##  9 KILLARNEY                 6148                   0.0419
    ## 10 KITSILANO                 8115                   0.0554
    ## # … with 12 more rows
…
